%YAML 1.1
%TAG !u! tag:unity3d.com,2011:
--- !u!1 &9000678724891442865
GameObject:
  m_ObjectHideFlags: 0
  m_CorrespondingSourceObject: {fileID: 0}
  m_PrefabInstance: {fileID: 0}
  m_PrefabAsset: {fileID: 0}
  serializedVersion: 6
  m_Component:
  - component: {fileID: 8620739816711103499}
  - component: {fileID: 4615308518569716654}
  - component: {fileID: 7487280477854654308}
  m_Layer: 0
  m_Name: Kloroplas
  m_TagString: Untagged
  m_Icon: {fileID: 0}
  m_NavMeshLayer: 0
  m_StaticEditorFlags: 0
  m_IsActive: 1
--- !u!4 &8620739816711103499
Transform:
  m_ObjectHideFlags: 0
  m_CorrespondingSourceObject: {fileID: 0}
  m_PrefabInstance: {fileID: 0}
  m_PrefabAsset: {fileID: 0}
  m_GameObject: {fileID: 9000678724891442865}
  m_LocalRotation: {x: -0.6823647, y: 0.12947482, z: 0.16997547, w: 0.69908726}
  m_LocalPosition: {x: -0, y: 0, z: 0}
  m_LocalScale: {x: 1500, y: 1500, z: 1500}
  m_ConstrainProportionsScale: 0
  m_Children: []
  m_Father: {fileID: 0}
  m_RootOrder: 0
  m_LocalEulerAnglesHint: {x: -86.449, y: -55.334, z: 79.795}
--- !u!33 &4615308518569716654
MeshFilter:
  m_ObjectHideFlags: 0
  m_CorrespondingSourceObject: {fileID: 0}
  m_PrefabInstance: {fileID: 0}
  m_PrefabAsset: {fileID: 0}
  m_GameObject: {fileID: 9000678724891442865}
  m_Mesh: {fileID: 9083777259030741518, guid: c1f474eb56097174f812432dfeac3287, type: 3}
--- !u!23 &7487280477854654308
MeshRenderer:
  m_ObjectHideFlags: 0
  m_CorrespondingSourceObject: {fileID: 0}
  m_PrefabInstance: {fileID: 0}
  m_PrefabAsset: {fileID: 0}
  m_GameObject: {fileID: 9000678724891442865}
  m_Enabled: 1
  m_CastShadows: 1
  m_ReceiveShadows: 1
  m_DynamicOccludee: 1
  m_StaticShadowCaster: 0
  m_MotionVectors: 1
  m_LightProbeUsage: 1
  m_ReflectionProbeUsage: 1
  m_RayTracingMode: 2
  m_RayTraceProcedural: 0
  m_RenderingLayerMask: 1
  m_RendererPriority: 0
  m_Materials:
  - {fileID: 5829548073971270385, guid: c1f474eb56097174f812432dfeac3287, type: 3}
  - {fileID: 8437690992350959965, guid: c1f474eb56097174f812432dfeac3287, type: 3}
  - {fileID: 4872405299567990004, guid: c1f474eb56097174f812432dfeac3287, type: 3}
  - {fileID: -4739639766339329087, guid: c1f474eb56097174f812432dfeac3287, type: 3}
  - {fileID: -6478536213147159724, guid: c1f474eb56097174f812432dfeac3287, type: 3}
  - {fileID: 4874126678125670354, guid: c1f474eb56097174f812432dfeac3287, type: 3}
  m_StaticBatchInfo:
    firstSubMesh: 0
    subMeshCount: 0
  m_StaticBatchRoot: {fileID: 0}
  m_ProbeAnchor: {fileID: 0}
  m_LightProbeVolumeOverride: {fileID: 0}
  m_ScaleInLightmap: 1
  m_ReceiveGI: 1
  m_PreserveUVs: 0
  m_IgnoreNormalsForChartDetection: 0
  m_ImportantGI: 0
  m_StitchLightmapSeams: 1
  m_SelectedEditorRenderState: 3
  m_MinimumChartSize: 4
  m_AutoUVMaxDistance: 0.5
  m_AutoUVMaxAngle: 89
  m_LightmapParameters: {fileID: 0}
  m_SortingLayerID: 0
  m_SortingLayer: 0
  m_SortingOrder: 0
  m_AdditionalVertexStreams: {fileID: 0}
